{
    "general": {
        "play_button_text": "Play",
        "game_text": "Game",
        "padding": "4px",
        "coin-a": "http://localhost:8080/protected/project-picker/6b391058dd4a48d8aec9129c3c1403e0",
        "coin-b": "http://localhost:8080/protected/project-picker/e6649845f4fe49ffa8c396166f6127bc",
        "coin-c": "http://localhost:8080/protected/project-picker/802e19e9415947509fa09f867590c7cd",
        "coin-d": "http://localhost:8080/protected/project-picker/6f77e629dca1458eb5efde2a0371ae00",
        "coin-e": "http://localhost:8080/protected/project-picker/439a0be00ca74b5fa8b4e563b18594fb",
        "coin-f": "http://localhost:8080/protected/project-picker/02c4e8f23f2f4ee8b92bd44fc3c333ce"
    }
}